<?xml version="1.0" encoding="utf-8"?>
<!-- Generator: Adobe Illustrator 16.0.0, SVG Export Plug-In . SVG Version: 6.00 Build 0)  -->
<!DOCTYPE svg PUBLIC "-//W3C//DTD SVG 1.1//EN" "http://www.w3.org/Graphics/SVG/1.1/DTD/svg11.dtd">
<svg version="1.1" id="Capa_1" xmlns="http://www.w3.org/2000/svg" xmlns:xlink="http://www.w3.org/1999/xlink" x="0px" y="0px"
	 width="26.25px" height="19.254px" viewBox="37.119 -5.246 26.25 19.254" enable-background="new 37.119 -5.246 26.25 19.254"
	 xml:space="preserve">
<path fill="#1D1D1B" d="M42.125,11.866c-0.066-0.066-0.145-0.119-0.236-0.156c-0.092-0.035-0.191-0.055-0.299-0.055
	c-0.057,0-0.117,0.006-0.178,0.016c-0.062,0.01-0.123,0.027-0.182,0.053c-0.061,0.023-0.115,0.061-0.168,0.104
	c-0.055,0.045-0.102,0.102-0.141,0.166c-0.062-0.104-0.15-0.188-0.258-0.246c-0.109-0.061-0.232-0.09-0.375-0.09
	c-0.047,0-0.094,0.004-0.145,0.012c-0.051,0.01-0.102,0.023-0.15,0.045c-0.051,0.021-0.098,0.051-0.143,0.086
	s-0.086,0.082-0.123,0.139v-0.23h-0.396v1.889h0.4V12.55c0-0.08,0.014-0.152,0.039-0.215c0.023-0.061,0.059-0.113,0.102-0.156
	c0.043-0.041,0.092-0.074,0.15-0.096c0.057-0.021,0.119-0.033,0.182-0.033c0.135,0,0.24,0.043,0.314,0.129
	c0.076,0.086,0.111,0.209,0.111,0.367v1.051h0.402V12.55c0-0.08,0.012-0.152,0.037-0.215c0.025-0.061,0.061-0.113,0.102-0.156
	c0.043-0.041,0.094-0.074,0.15-0.096s0.119-0.033,0.184-0.033c0.135,0,0.24,0.043,0.314,0.129s0.111,0.209,0.111,0.367v1.051h0.4
	v-1.188c0-0.111-0.018-0.211-0.055-0.305C42.242,12.011,42.191,11.933,42.125,11.866"/>
<path fill="#1D1D1B" d="M44.238,11.935c-0.066-0.084-0.148-0.152-0.244-0.203c-0.098-0.051-0.215-0.076-0.35-0.076
	c-0.131,0-0.256,0.025-0.371,0.074c-0.113,0.049-0.213,0.119-0.299,0.207s-0.152,0.191-0.201,0.312s-0.074,0.256-0.074,0.4
	c0,0.143,0.025,0.275,0.074,0.398c0.049,0.121,0.115,0.227,0.201,0.314c0.084,0.088,0.186,0.156,0.299,0.205
	c0.115,0.049,0.238,0.074,0.371,0.074c0.135,0,0.252-0.025,0.35-0.076c0.096-0.049,0.178-0.115,0.244-0.201v0.229h0.412v-1.889
	h-0.412V11.935z M44.222,12.89c-0.027,0.072-0.066,0.139-0.117,0.191c-0.049,0.053-0.109,0.096-0.18,0.127
	c-0.068,0.031-0.146,0.047-0.232,0.047c-0.09,0-0.168-0.018-0.24-0.049c-0.07-0.033-0.129-0.076-0.178-0.131
	s-0.086-0.119-0.113-0.191c-0.025-0.072-0.039-0.15-0.039-0.234c0-0.082,0.014-0.16,0.039-0.234
	c0.027-0.074,0.064-0.139,0.113-0.191c0.049-0.055,0.107-0.1,0.178-0.131s0.15-0.049,0.24-0.049c0.086,0,0.164,0.018,0.232,0.047
	c0.07,0.031,0.131,0.072,0.18,0.127c0.051,0.055,0.09,0.117,0.117,0.191s0.041,0.154,0.041,0.24S44.25,12.817,44.222,12.89"/>
<path fill="#1D1D1B" d="M46.545,12.647c-0.115-0.092-0.277-0.15-0.484-0.182l-0.193-0.029c-0.045-0.006-0.086-0.016-0.123-0.023
	c-0.039-0.008-0.072-0.02-0.1-0.033s-0.049-0.033-0.064-0.055c-0.018-0.021-0.023-0.051-0.023-0.084
	c0-0.066,0.029-0.121,0.094-0.162c0.061-0.041,0.148-0.062,0.262-0.062c0.061,0,0.119,0.006,0.176,0.018
	c0.057,0.01,0.111,0.023,0.162,0.039s0.098,0.033,0.141,0.053s0.076,0.037,0.105,0.055l0.178-0.322
	c-0.098-0.062-0.213-0.111-0.346-0.146c-0.131-0.033-0.27-0.053-0.42-0.053c-0.119,0-0.229,0.014-0.324,0.043
	c-0.096,0.027-0.178,0.068-0.246,0.121c-0.066,0.051-0.119,0.113-0.154,0.189c-0.037,0.074-0.055,0.158-0.055,0.252
	c0,0.152,0.055,0.275,0.162,0.369c0.107,0.096,0.268,0.156,0.479,0.186l0.197,0.025c0.113,0.016,0.195,0.039,0.248,0.074
	s0.078,0.08,0.078,0.135c0,0.07-0.035,0.127-0.107,0.168s-0.18,0.062-0.322,0.062c-0.076,0-0.146-0.006-0.207-0.016
	c-0.061-0.012-0.117-0.025-0.168-0.043c-0.051-0.02-0.096-0.037-0.137-0.062c-0.039-0.021-0.076-0.047-0.111-0.074l-0.191,0.311
	c0.068,0.053,0.143,0.094,0.217,0.125s0.148,0.057,0.221,0.074c0.074,0.016,0.141,0.027,0.205,0.033
	c0.064,0.008,0.121,0.01,0.17,0.01c0.135,0,0.258-0.016,0.363-0.045c0.107-0.029,0.197-0.072,0.271-0.127
	c0.072-0.055,0.129-0.119,0.168-0.195c0.037-0.076,0.059-0.158,0.059-0.25C46.717,12.862,46.66,12.737,46.545,12.647"/>
<path fill="#1D1D1B" d="M50.402,11.931c-0.076-0.088-0.172-0.154-0.281-0.203c-0.107-0.047-0.229-0.072-0.359-0.072
	c-0.141,0-0.27,0.025-0.385,0.072c-0.113,0.049-0.213,0.115-0.295,0.203c-0.084,0.088-0.146,0.191-0.193,0.314
	c-0.047,0.121-0.068,0.256-0.068,0.404s0.021,0.285,0.07,0.408c0.049,0.121,0.113,0.227,0.199,0.312
	c0.084,0.086,0.188,0.152,0.307,0.201c0.117,0.047,0.248,0.07,0.391,0.07s0.279-0.021,0.408-0.061s0.252-0.107,0.367-0.207
	l-0.203-0.293c-0.08,0.062-0.166,0.111-0.262,0.146C50,13.263,49.906,13.28,49.812,13.28c-0.066,0-0.133-0.01-0.193-0.027
	c-0.062-0.02-0.117-0.047-0.168-0.086c-0.049-0.039-0.092-0.09-0.129-0.148c-0.035-0.062-0.059-0.135-0.072-0.221h1.396
	c0.002-0.021,0.004-0.049,0.006-0.072c0.002-0.027,0.002-0.055,0.002-0.08c0-0.146-0.021-0.281-0.066-0.402
	C50.541,12.122,50.48,12.019,50.402,11.931 M49.25,12.487c0.012-0.068,0.029-0.131,0.057-0.188c0.025-0.057,0.059-0.105,0.102-0.146
	c0.041-0.043,0.09-0.074,0.146-0.096c0.059-0.023,0.123-0.033,0.197-0.033c0.131,0,0.238,0.039,0.32,0.121
	c0.084,0.082,0.135,0.195,0.158,0.344h-0.98V12.487z"/>
<path fill="#1D1D1B" d="M55.877,11.935c-0.064-0.084-0.145-0.152-0.244-0.203c-0.098-0.051-0.213-0.076-0.35-0.076
	c-0.133,0-0.256,0.025-0.369,0.074c-0.115,0.049-0.215,0.119-0.301,0.207s-0.152,0.191-0.201,0.312s-0.072,0.256-0.072,0.4
	c0,0.143,0.023,0.275,0.072,0.398c0.049,0.121,0.115,0.227,0.201,0.314s0.186,0.156,0.301,0.205
	c0.113,0.049,0.236,0.074,0.369,0.074c0.137,0,0.252-0.025,0.35-0.076c0.1-0.049,0.18-0.115,0.244-0.201v0.229h0.412v-1.889h-0.412
	V11.935z M55.863,12.89c-0.027,0.072-0.066,0.139-0.117,0.191c-0.049,0.053-0.109,0.096-0.178,0.127
	c-0.07,0.031-0.148,0.047-0.234,0.047c-0.088,0-0.168-0.018-0.238-0.049c-0.07-0.033-0.131-0.076-0.178-0.131
	c-0.051-0.055-0.088-0.119-0.113-0.191s-0.039-0.15-0.039-0.234c0-0.082,0.014-0.16,0.039-0.234s0.062-0.139,0.113-0.191
	c0.047-0.055,0.107-0.1,0.178-0.131s0.15-0.049,0.238-0.049c0.086,0,0.164,0.018,0.234,0.047c0.068,0.031,0.129,0.072,0.178,0.127
	c0.051,0.055,0.09,0.117,0.117,0.191s0.041,0.154,0.041,0.24S55.89,12.817,55.863,12.89"/>
<path fill="#1D1D1B" d="M48.31,13.216c-0.064,0.025-0.131,0.039-0.195,0.039c-0.041,0-0.08-0.008-0.117-0.021
	c-0.035-0.012-0.066-0.033-0.096-0.062c-0.025-0.027-0.047-0.062-0.062-0.109c-0.016-0.043-0.023-0.098-0.023-0.16v-0.822h0.662
	v-0.373h-0.662v-0.572h-0.414v0.572h-0.375v0.373h0.375v0.83c0,0.252,0.061,0.438,0.18,0.555c0.119,0.119,0.285,0.18,0.5,0.18
	c0.119,0,0.227-0.02,0.322-0.055c0.061-0.023,0.121-0.053,0.176-0.084l-0.141-0.344C48.398,13.181,48.355,13.2,48.31,13.216"/>
<path fill="#1D1D1B" d="M52.031,11.655c-0.115,0-0.219,0.021-0.312,0.064c-0.094,0.041-0.172,0.143-0.234,0.232v-0.248h-0.375v1.891
	h0.379v-1.039c0-0.08,0.012-0.152,0.033-0.217c0.021-0.062,0.055-0.115,0.094-0.158c0.039-0.045,0.086-0.076,0.141-0.1
	c0.057-0.021,0.115-0.033,0.184-0.033c0.049,0,0.104,0.006,0.162,0.018c0.027,0.006,0.057,0.014,0.082,0.021l0.121-0.395
	c-0.033-0.01-0.066-0.02-0.102-0.025C52.152,11.661,52.095,11.655,52.031,11.655"/>
<path fill="#1D1D1B" d="M57.761,11.655c-0.115,0-0.221,0.021-0.314,0.064c-0.092,0.041-0.17,0.143-0.234,0.232v-0.248H56.84v1.891
	h0.377v-1.039c0-0.08,0.014-0.152,0.035-0.217c0.021-0.062,0.053-0.115,0.092-0.158c0.039-0.045,0.088-0.076,0.143-0.1
	c0.055-0.021,0.115-0.033,0.182-0.033c0.051,0,0.105,0.006,0.162,0.018c0.029,0.006,0.059,0.014,0.082,0.021l0.121-0.395
	c-0.031-0.01-0.066-0.02-0.1-0.025C57.881,11.661,57.824,11.655,57.761,11.655"/>
<path fill="#1D1D1B" d="M59.687,10.937v0.998c-0.066-0.084-0.148-0.152-0.246-0.203c-0.096-0.051-0.213-0.076-0.35-0.076
	c-0.133,0-0.256,0.025-0.369,0.074c-0.115,0.049-0.217,0.119-0.301,0.207c-0.086,0.088-0.152,0.191-0.199,0.312
	c-0.051,0.121-0.074,0.256-0.074,0.4c0,0.143,0.023,0.275,0.074,0.398c0.047,0.121,0.113,0.227,0.199,0.314
	c0.084,0.088,0.186,0.156,0.301,0.205c0.113,0.049,0.236,0.074,0.369,0.074c0.137,0,0.254-0.025,0.35-0.076
	c0.098-0.049,0.18-0.115,0.246-0.201v0.229h0.412v-2.656H59.687L59.687,10.937z M59.67,12.89c-0.027,0.072-0.064,0.139-0.115,0.191
	s-0.109,0.096-0.182,0.127c-0.066,0.031-0.145,0.047-0.23,0.047c-0.092,0-0.17-0.018-0.24-0.049
	c-0.07-0.033-0.129-0.076-0.178-0.131c-0.051-0.055-0.086-0.119-0.113-0.191c-0.025-0.072-0.039-0.15-0.039-0.234
	c0-0.082,0.014-0.16,0.039-0.234c0.027-0.074,0.062-0.139,0.113-0.191c0.049-0.055,0.105-0.1,0.178-0.131
	c0.07-0.031,0.148-0.049,0.24-0.049c0.086,0,0.164,0.018,0.23,0.047c0.07,0.031,0.131,0.072,0.182,0.127s0.088,0.117,0.115,0.191
	s0.041,0.154,0.041,0.24S59.697,12.817,59.67,12.89"/>
<path fill="#1D1D1B" d="M53.019,12.212c0.053-0.053,0.113-0.096,0.188-0.125c0.072-0.027,0.15-0.043,0.234-0.043
	c0.092,0,0.178,0.016,0.258,0.043c0.076,0.029,0.143,0.068,0.199,0.119l0.199-0.328c-0.074-0.061-0.158-0.107-0.252-0.146
	c-0.123-0.051-0.26-0.076-0.404-0.076c-0.146,0-0.281,0.025-0.406,0.076c-0.123,0.051-0.23,0.121-0.32,0.209
	c-0.09,0.09-0.16,0.193-0.213,0.314c-0.051,0.121-0.076,0.252-0.076,0.395s0.025,0.271,0.076,0.395
	c0.053,0.121,0.123,0.227,0.213,0.314s0.197,0.158,0.32,0.209c0.125,0.051,0.26,0.076,0.406,0.076c0.145,0,0.281-0.025,0.404-0.076
	c0.094-0.037,0.178-0.086,0.252-0.146l-0.199-0.33c-0.057,0.051-0.123,0.092-0.199,0.119c-0.08,0.029-0.166,0.045-0.258,0.045
	c-0.084,0-0.162-0.016-0.234-0.045s-0.135-0.07-0.188-0.125c-0.055-0.053-0.096-0.117-0.125-0.189
	c-0.029-0.074-0.045-0.156-0.045-0.246s0.016-0.172,0.045-0.246S52.965,12.267,53.019,12.212"/>
<path fill="#1D1D1B" d="M60.965,13.317c0.029,0,0.055,0.006,0.078,0.016s0.045,0.023,0.062,0.041s0.031,0.037,0.043,0.062
	c0.01,0.023,0.016,0.047,0.016,0.074c0,0.025-0.006,0.051-0.016,0.074c-0.012,0.023-0.025,0.043-0.043,0.062
	c-0.018,0.018-0.039,0.031-0.062,0.041s-0.049,0.016-0.078,0.016c-0.025,0-0.053-0.006-0.076-0.016
	c-0.025-0.01-0.047-0.023-0.062-0.041c-0.02-0.02-0.033-0.039-0.043-0.062s-0.016-0.049-0.016-0.074
	c0-0.027,0.006-0.053,0.016-0.074c0.01-0.023,0.023-0.045,0.043-0.062c0.018-0.018,0.037-0.031,0.062-0.041
	C60.912,13.323,60.939,13.317,60.965,13.317 M60.965,13.649c0.021,0,0.037-0.004,0.057-0.012c0.018-0.008,0.029-0.018,0.043-0.029
	s0.021-0.027,0.031-0.045c0.006-0.018,0.01-0.033,0.01-0.055c0-0.02-0.004-0.035-0.01-0.055c-0.01-0.016-0.02-0.031-0.031-0.043
	c-0.014-0.014-0.025-0.021-0.043-0.031c-0.02-0.006-0.035-0.01-0.057-0.01c-0.02,0-0.035,0.004-0.055,0.01
	c-0.016,0.01-0.031,0.02-0.045,0.031c-0.012,0.012-0.02,0.027-0.029,0.043c-0.006,0.02-0.01,0.035-0.01,0.055
	c0,0.021,0.004,0.037,0.01,0.055c0.01,0.018,0.02,0.033,0.029,0.045c0.014,0.012,0.029,0.021,0.045,0.029
	C60.929,13.646,60.947,13.649,60.965,13.649 M60.978,13.423c0.021,0,0.041,0.008,0.053,0.018s0.018,0.023,0.018,0.041
	c0,0.014-0.004,0.025-0.012,0.035c-0.01,0.008-0.021,0.016-0.039,0.018l0.055,0.062h-0.059l-0.047-0.061h-0.006v0.061h-0.047v-0.172
	h0.084V13.423z M60.941,13.466v0.031h0.037c0.006,0,0.012-0.002,0.016-0.004S61,13.487,61,13.481s-0.002-0.01-0.006-0.014
	c-0.004-0.002-0.01-0.004-0.016-0.004h-0.037V13.466z"/>
<path fill="#E20D17" d="M46.998,2.875c0-2.263,1.059-4.276,2.705-5.582c-1.215-0.961-2.748-1.537-4.418-1.537
	c-3.932,0-7.119,3.188-7.119,7.119c0,3.933,3.189,7.121,7.119,7.121c1.67,0,3.203-0.576,4.418-1.538
	C48.056,7.153,46.998,5.137,46.998,2.875"/>
<path fill="#EA610A" d="M46.998,2.875c0,2.265,1.059,4.278,2.705,5.583c1.645-1.304,2.701-3.318,2.701-5.583
	c0-2.263-1.057-4.276-2.701-5.582C48.056-1.404,46.998,0.612,46.998,2.875"/>
<path fill="#F59E00" d="M60.754,6.725V6.516H60.67V6.458h0.23v0.058h-0.084v0.209H60.754z M61.201,6.725V6.541L61.14,6.7h-0.066
	l-0.059-0.159v0.185h-0.062V6.458h0.088l0.066,0.171l0.064-0.171h0.09v0.267H61.201z"/>
<path fill="#F59E00" d="M54.117-4.246c-1.668,0-3.201,0.576-4.414,1.537c1.645,1.305,2.701,3.318,2.701,5.582
	s-1.057,4.277-2.701,5.583c1.213,0.96,2.746,1.536,4.414,1.536c3.932,0,7.119-3.188,7.119-7.12
	C61.238-1.058,58.049-4.246,54.117-4.246"/>
</svg>
