<?xml version="1.0" encoding="utf-8"?>
<!-- Generator: Adobe Illustrator 16.0.0, SVG Export Plug-In . SVG Version: 6.00 Build 0)  -->
<!DOCTYPE svg PUBLIC "-//W3C//DTD SVG 1.1//EN" "http://www.w3.org/Graphics/SVG/1.1/DTD/svg11.dtd">
<svg version="1.1" id="Capa_1" xmlns="http://www.w3.org/2000/svg" xmlns:xlink="http://www.w3.org/1999/xlink" x="0px" y="0px"
	 width="95px" height="18px" viewBox="0 0 95 18" enable-background="new 0 0 95 18" xml:space="preserve">
<g>
	<defs>
		<path id="SVGID_1_" d="M9.693,0.854c0,2.213,3.556,4.67,3.556,7.195c0,0,0,0.244-0.099,0.506c3.324,0.732,5.678,2.457,5.678,4.479
			c0,2.719-4.197,4.966-9.398,4.966C4.117,18,0,15.789,0,13.137c0-2.02,2.551-3.66,5.629-4.529c0,1.115,3.504,4.652,3.588,6.08
			c0.01,0.164,0.041,0.303,0,0.471c0.758-0.418,0.758-1.725,0.758-1.725c0-3.102-3.407-4.479-3.407-7.527
			c0-1.186,0.527-2.055,1.003-2.299v0.854c0,2.213,3.687,4.686,3.687,6.707v0.664c0.856-0.35,0.856-2.006,0.856-2.006
			c0-2.787-3.423-4.338-3.423-7.527C8.69,1.115,9.217,0.244,9.693,0V0.854z"/>
	</defs>
	<clipPath id="SVGID_2_">
		<use xlink:href="#SVGID_1_"  overflow="visible"/>
	</clipPath>
	<g clip-path="url(#SVGID_2_)">
		<defs>
			<rect id="SVGID_3_" x="-113" y="-592" width="320" height="1024"/>
		</defs>
		<clipPath id="SVGID_4_">
			<use xlink:href="#SVGID_3_"  overflow="visible"/>
		</clipPath>
		<rect x="-5" y="-5" clip-path="url(#SVGID_4_)" fill="#E41F36" width="28.828" height="28"/>
	</g>
</g>
<g>
	<defs>
		<path id="SVGID_5_" d="M26.377,17.099c-1.896,0-3.27-0.535-3.27-0.535v-3.273h0.471c0.242,1.73,1.564,3.044,3.076,3.044
			c1.514,0,2.574-0.83,2.574-2.144c0-1.402-1.408-2.041-2.348-2.51l-1.355-0.674c-1.287-0.641-2.33-1.68-2.33-3.133
			c0-1.818,1.357-3.375,3.946-3.375c1.773,0,3.234,0.588,3.234,0.588v2.924h-0.47c-0.277-1.557-1.146-2.785-2.921-2.785
			c-1.321,0-2.104,0.9-2.104,1.816c0,1.195,0.834,1.73,1.808,2.217l1.357,0.674c1.233,0.623,2.764,1.662,2.764,3.428
			C30.811,15.609,29.246,17.099,26.377,17.099"/>
	</defs>
	<clipPath id="SVGID_6_">
		<use xlink:href="#SVGID_5_"  overflow="visible"/>
	</clipPath>
	<g clip-path="url(#SVGID_6_)">
		<defs>
			<rect id="SVGID_7_" x="-113" y="-592" width="320" height="1024"/>
		</defs>
		<clipPath id="SVGID_8_">
			<use xlink:href="#SVGID_7_"  overflow="visible"/>
		</clipPath>
		<rect x="18.107" y="-0.5" clip-path="url(#SVGID_8_)" fill="#E41F36" width="17.703" height="22.599"/>
	</g>
</g>
<g>
	<defs>
		<path id="SVGID_9_" d="M34.131,13.572c-0.338,0.158-0.934,0.455-0.934,1.293c0,0.453,0.242,1.188,1.08,1.188
			c0.402,0,0.965-0.244,1.369-0.594v-2.584L34.131,13.572z M33.471,17.099c-1.096,0-1.805-0.785-1.805-1.953
			c0-0.84,0.564-1.484,1.805-1.975l2.176-0.855v-0.734c0-1.098-0.468-1.779-1.177-1.779c-0.483,0-0.967,0.262-1.209,0.682
			c-0.095,0.156-0.111,0.385-0.111,0.557c0,0.297,0.177,0.646,0.177,0.646l-1.062,0.523c-0.129-0.242-0.291-0.609-0.291-0.977
			c0-0.068,0.016-0.139,0.016-0.193c0.082-0.627,0.581-1.047,1.258-1.482C33.906,9.123,34.47,9,34.872,9
			c2.03,0,2.384,1.744,2.384,2.322v3.613c0,0.574,0.049,0.943,0.483,0.943c0.129,0,0.21,0,0.388-0.07l0.387-0.141v0.523
			l-2.256,0.908c-0.338-0.262-0.5-0.732-0.563-1.134C35.162,16.455,34.244,17.099,33.471,17.099z"/>
	</defs>
	<clipPath id="SVGID_10_">
		<use xlink:href="#SVGID_9_"  overflow="visible"/>
	</clipPath>
	<g clip-path="url(#SVGID_10_)">
		<defs>
			<rect id="SVGID_11_" x="-113" y="-592" width="320" height="1024"/>
		</defs>
		<clipPath id="SVGID_12_">
			<use xlink:href="#SVGID_11_"  overflow="visible"/>
		</clipPath>
		<rect x="26.666" y="4" clip-path="url(#SVGID_12_)" fill="#E41F36" width="16.848" height="18.099"/>
	</g>
</g>
<g>
	<defs>
		<path id="SVGID_13_" d="M39.369,17.099v-0.426l0.537-0.109c0.324-0.072,0.551-0.338,0.551-0.697v-4.762
			c0-0.41-0.178-0.625-0.504-0.625c-0.112,0-0.243,0.02-0.373,0.072l-0.211,0.088v-0.535L41.707,9h0.342v1.32
			C42.763,9.445,43.607,9,44.355,9c1.656,0,2.452,1.303,2.452,2.818v4.049c0,0.359,0.244,0.644,0.57,0.697l0.551,0.109v0.426h-3.866
			v-0.426l0.536-0.109c0.325-0.072,0.585-0.338,0.585-0.697v-4.029c0-0.537-0.131-1.732-1.43-1.732c-0.715,0-1.316,0.482-1.672,0.84
			v4.922c0,0.359,0.259,0.625,0.584,0.697l0.535,0.109v0.426H39.369z"/>
	</defs>
	<clipPath id="SVGID_14_">
		<use xlink:href="#SVGID_13_"  overflow="visible"/>
	</clipPath>
	<g clip-path="url(#SVGID_14_)">
		<defs>
			<rect id="SVGID_15_" x="-113" y="-592" width="320" height="1024"/>
		</defs>
		<clipPath id="SVGID_16_">
			<use xlink:href="#SVGID_15_"  overflow="visible"/>
		</clipPath>
		<rect x="34.369" y="4" clip-path="url(#SVGID_16_)" fill="#E41F36" width="18.559" height="18.099"/>
	</g>
</g>
<g>
	<defs>
		<path id="SVGID_17_" d="M53.305,10.164H50.77v4.322c0,0.959,0.525,1.48,1.285,1.48c0.309,0,0.797-0.086,1.25-0.33l0.199,0.418
			l-1.631,0.994c0,0-0.324,0.051-0.486,0.051c-1.576,0-2.426-0.889-2.426-2.771v-4.164h-1.322V9.729c0,0,1.99-0.732,2.77-2.529
			h0.361v2.213h2.861L53.305,10.164z"/>
	</defs>
	<clipPath id="SVGID_18_">
		<use xlink:href="#SVGID_17_"  overflow="visible"/>
	</clipPath>
	<g clip-path="url(#SVGID_18_)">
		<defs>
			<rect id="SVGID_19_" x="-115" y="-592" width="320" height="1024"/>
		</defs>
		<clipPath id="SVGID_20_">
			<use xlink:href="#SVGID_19_"  overflow="visible"/>
		</clipPath>
		<rect x="42.64" y="2.199" clip-path="url(#SVGID_20_)" fill="#E41F36" width="15.992" height="19.9"/>
	</g>
</g>
<g>
	<defs>
		<path id="SVGID_21_" d="M57.239,13.572c-0.338,0.158-0.934,0.455-0.934,1.293c0,0.453,0.24,1.188,1.08,1.188
			c0.402,0,0.967-0.244,1.369-0.594v-2.584L57.239,13.572z M56.579,17.099c-1.096,0-1.803-0.785-1.803-1.953
			c0-0.84,0.562-1.484,1.803-1.975l2.176-0.855v-0.734c0-1.098-0.467-1.779-1.176-1.779c-0.484,0-0.969,0.262-1.209,0.682
			c-0.096,0.156-0.113,0.385-0.113,0.557c0,0.297,0.18,0.646,0.18,0.646l-1.064,0.523c-0.131-0.242-0.291-0.609-0.291-0.977
			c0-0.068,0.018-0.139,0.018-0.193c0.078-0.627,0.578-1.047,1.254-1.482C57.014,9.123,57.579,9,57.979,9
			c2.033,0,2.387,1.744,2.387,2.322v3.613c0,0.574,0.049,0.943,0.482,0.943c0.129,0,0.211,0,0.387-0.07l0.387-0.141v0.523
			l-2.254,0.908c-0.34-0.262-0.5-0.732-0.564-1.134C58.272,16.455,57.352,17.099,56.579,17.099z"/>
	</defs>
	<clipPath id="SVGID_22_">
		<use xlink:href="#SVGID_21_"  overflow="visible"/>
	</clipPath>
	<g clip-path="url(#SVGID_22_)">
		<defs>
			<rect id="SVGID_23_" x="-113" y="-592" width="320" height="1024"/>
		</defs>
		<clipPath id="SVGID_24_">
			<use xlink:href="#SVGID_23_"  overflow="visible"/>
		</clipPath>
		<rect x="49.776" y="4" clip-path="url(#SVGID_24_)" fill="#E41F36" width="16.846" height="18.099"/>
	</g>
</g>
<g>
	<defs>
		<path id="SVGID_25_" d="M62.477,17.099v-0.426l0.537-0.109c0.324-0.072,0.553-0.338,0.553-0.697v-4.762
			c0-0.41-0.18-0.625-0.504-0.625c-0.113,0-0.244,0.02-0.373,0.072l-0.213,0.088v-0.535L64.817,9h0.342v1.32
			C65.874,9.445,66.717,9,67.463,9c1.656,0,2.453,1.303,2.453,2.818v4.049c0,0.359,0.244,0.644,0.568,0.697l0.551,0.109v0.426
			h-3.863v-0.426l0.537-0.109c0.322-0.072,0.582-0.338,0.582-0.697v-4.029c0-0.537-0.129-1.732-1.428-1.732
			c-0.717,0-1.316,0.482-1.674,0.84v4.922c0,0.359,0.262,0.625,0.584,0.697l0.537,0.109v0.426H62.477z"/>
	</defs>
	<clipPath id="SVGID_26_">
		<use xlink:href="#SVGID_25_"  overflow="visible"/>
	</clipPath>
	<g clip-path="url(#SVGID_26_)">
		<defs>
			<rect id="SVGID_27_" x="-113" y="-592" width="320" height="1024"/>
		</defs>
		<clipPath id="SVGID_28_">
			<use xlink:href="#SVGID_27_"  overflow="visible"/>
		</clipPath>
		<rect x="57.477" y="4" clip-path="url(#SVGID_28_)" fill="#E41F36" width="18.559" height="18.099"/>
	</g>
</g>
<g>
	<defs>
		<path id="SVGID_29_" d="M76,9.879c-1.174,0-2.381,0.787-2.381,3.08c0,1.916,0.914,3.08,2.348,3.08
			c0.865,0,1.402-0.531,1.533-0.805v-4.447C77.29,10.221,76.686,9.879,76,9.879 M75.266,17.099c-1.531,0-3.373-1.197-3.373-3.798
			c0-2.275,1.678-4.141,3.928-4.141c0.75,0,1.289,0.154,1.68,0.326v-3.92c0-0.41-0.211-0.529-0.473-0.529
			c-0.146,0-0.311,0.033-0.457,0.084l-0.326,0.121V4.727L78.79,3.6h0.342v11.275c0,0.652,0.096,1.027,0.537,1.027
			c0.131,0,0.211,0,0.391-0.068l0.393-0.137v0.511l-2.283,0.891c-0.357-0.256-0.537-0.736-0.619-1.128
			C77.125,16.449,76.36,17.099,75.266,17.099"/>
	</defs>
	<clipPath id="SVGID_30_">
		<use xlink:href="#SVGID_29_"  overflow="visible"/>
	</clipPath>
	<g clip-path="url(#SVGID_30_)">
		<defs>
			<rect id="SVGID_31_" x="-113" y="-592" width="320" height="1024"/>
		</defs>
		<clipPath id="SVGID_32_">
			<use xlink:href="#SVGID_31_"  overflow="visible"/>
		</clipPath>
		<rect x="66.893" y="-1.4" clip-path="url(#SVGID_32_)" fill="#E41F36" width="18.559" height="23.5"/>
	</g>
</g>
<g>
	<defs>
		<path id="SVGID_33_" d="M86.417,11.707v-0.035c0-1.311-0.693-1.939-1.521-1.939c-0.926,0-1.621,0.646-1.818,1.975H86.417z
			 M83.026,12.422v0.088C83.01,14.83,84.266,16,85.838,16c0.793,0,1.521-0.314,2.1-0.785v0.697c-0.662,0.646-1.67,1.187-2.91,1.187
			c-2.58,0-3.721-2.041-3.721-3.98c0-2.27,1.637-4.119,3.752-4.119c1.738,0,3.094,1.293,3.094,3.195v0.227H83.026z"/>
	</defs>
	<clipPath id="SVGID_34_">
		<use xlink:href="#SVGID_33_"  overflow="visible"/>
	</clipPath>
	<g clip-path="url(#SVGID_34_)">
		<defs>
			<rect id="SVGID_35_" x="-113" y="-592" width="320" height="1024"/>
		</defs>
		<clipPath id="SVGID_36_">
			<use xlink:href="#SVGID_35_"  overflow="visible"/>
		</clipPath>
		<rect x="76.307" y="4" clip-path="url(#SVGID_36_)" fill="#E41F36" width="16.846" height="18.099"/>
	</g>
</g>
<g>
	<defs>
		<path id="SVGID_37_" d="M89.008,17.099v-0.424l0.58-0.109c0.336-0.072,0.598-0.336,0.598-0.693v-4.742
			c0-0.408-0.193-0.623-0.545-0.623c-0.121,0-0.264,0.02-0.402,0.072l-0.23,0.088v-0.531l2.494-1.102h0.371v1.723
			C92.506,9.514,93.262,9,94.122,9C94.825,9,95,9.178,95,9.178v1.883h-0.35c-0.09-0.498-0.424-0.746-0.949-0.746
			c-0.562,0-1.266,0.158-1.758,1.189v4.369c0,0.357,0.352,0.64,0.686,0.693l0.844,0.109v0.424H89.008z"/>
	</defs>
	<clipPath id="SVGID_38_">
		<use xlink:href="#SVGID_37_"  overflow="visible"/>
	</clipPath>
	<g clip-path="url(#SVGID_38_)">
		<defs>
			<rect id="SVGID_39_" x="-113" y="-592" width="320" height="1024"/>
		</defs>
		<clipPath id="SVGID_40_">
			<use xlink:href="#SVGID_39_"  overflow="visible"/>
		</clipPath>
		<rect x="84.008" y="4" clip-path="url(#SVGID_40_)" fill="#E41F36" width="15.992" height="18.099"/>
	</g>
</g>
</svg>
